module gitlab.com/alfigusman0/belajar-golang-dan-mongodb

go 1.13

require (
	github.com/gin-gonic/gin v1.6.3
	github.com/go-playground/validator/v10 v10.4.1 // indirect
	github.com/golang/protobuf v1.4.3 // indirect
	github.com/json-iterator/go v1.1.10 // indirect
	github.com/modern-go/concurrent v0.0.0-20180306012644-bacd9c7ef1dd // indirect
	github.com/modern-go/reflect2 v1.0.1 // indirect
	github.com/ugorji/go v1.1.12 // indirect
	go.mongodb.org/mongo-driver v1.4.2
	golang.org/x/crypto v0.0.0-20201016220609-9e8e0b390897
	golang.org/x/sys v0.0.0-20201018230417-eeed37f84f13 // indirect
	google.golang.org/protobuf v1.25.0 // indirect
	gopkg.in/yaml.v2 v2.3.0 // indirect
)
